/* XPM */
static char *graphic[] = {
/* width height num_colors chars_per_pixel */
"32 32 309 2", 
/* colors */
"   c None",
".  c None",
"X  c None",
"o  c #AA0000",
"O  c #B30001",
"+  c #AF0001",
"@  c #870003",
"#  c #AF0001",
"$  c None",
"%  c None",
"&  c #AA0001",
"*  c #760003",
"=  c #7A0002",
"-  c #B40001",
";  c #920000",
":  c None",
">  c #A00101",
",  c #940002",
"<  c None",
"1  c #AA0001",
"2  c #9A0003",
"3  c None",
"4  c #710003",
"5  c None",
"6  c #AA0001",
"7  c #910003",
"8  c #AA0001",
"9  c #A60001",
"0  c None",
"q  c #8B0004",
"w  c #7E0004",
"e  c None",
"r  c #870003",
"t  c #9D0001",
"y  c None",
"u  c None",
"i  c #B30001",
"p  c None",
"a  c None",
"s  c #880002",
"d  c #870003",
"f  c None",
"g  c #9D0002",
"h  c None",
"j  c #840004",
"k  c #B30001",
"l  c None",
"z  c #830005",
"x  c #B30001",
"c  c None",
"v  c #B30001",
"b  c None",
"n  c #7E0005",
"m  c #AB0000",
"M  c #840004",
"N  c #A60001",
"B  c None",
"V  c #870004",
"C  c #900003",
"Z  c #990001",
"A  c None",
"S  c #9D0003",
"D  c #8F0101",
"F  c None",
"G  c None",
"H  c None",
"J  c #AB0001",
"K  c None",
"L  c #AF0002",
"P  c #830003",
"I  c #A80001",
"U  c #7C0003",
"Y  c None",
"T  c None",
"R  c None",
"E  c #890002",
"W  c None",
"Q  c None",
"!  c #720002",
"~  c #B50000",
"^  c #AF0001",
"/  c #A00101",
"(  c #8C0002",
")  c None",
"_  c None",
"`  c None",
"'  c None",
"]  c #B00001",
"[  c None",
"{  c #7C0003",
"}  c None",
"|  c #AB0000",
" . c None",
".. c #AF0002",
"X. c #760004",
"o. c #950002",
"O. c #B10001",
"+. c #760103",
"@. c None",
"#. c #AB0001",
"$. c None",
"%. c None",
"&. c #AB0001",
"*. c #AB0001",
"=. c #A70001",
"-. c None",
";. c #A20003",
":. c #A20003",
">. c None",
",. c #780003",
"<. c #B40001",
"1. c #9D0102",
"2. c #770002",
"3. c #9E0002",
"4. c #B00002",
"5. c #7B0003",
"6. c #9A0004",
"7. c #730002",
"8. c #B20101",
"9. c #910002",
"0. c #B00001",
"q. c #770003",
"w. c #A70001",
"e. c #890001",
"r. c #8C0105",
"t. c #730003",
"y. c #B00001",
"u. c #9A0001",
"i. c None",
"p. c None",
"a. c #A30001",
"s. c None",
"d. c #910003",
"f. c #B10001",
"g. c #B00001",
"h. c #780002",
"j. c #800004",
"k. c None",
"l. c None",
"z. c #B20001",
"x. c None",
"c. c None",
"v. c None",
"b. c None",
"n. c None",
"m. c #AC0001",
"M. c #730003",
"N. c #700001",
"B. c #960001",
"V. c None",
"C. c None",
"Z. c #B10002",
"A. c #B00002",
"S. c #B00002",
"D. c None",
"F. c #8D0003",
"G. c #A30002",
"H. c #A30002",
"J. c #800003",
"K. c #AC0001",
"L. c #730003",
"P. c None",
"I. c #B50001",
"U. c #890003",
"Y. c #930003",
"T. c #A90001",
"R. c None",
"E. c #AC0001",
"W. c None",
"Q. c #800005",
"!. c None",
"~. c #970001",
"^. c #A40001",
"/. c None",
"(. c None",
"). c #730004",
"_. c #B20001",
"`. c None",
"'. c #710001",
"]. c #A80000",
"[. c #B10001",
"{. c #890003",
"}. c None",
"|. c None",
" X c #9F0002",
".X c None",
"XX c #7E0003",
"oX c #B10001",
"OX c None",
"+X c #8A0001",
"@X c None",
"#X c None",
"$X c None",
"%X c None",
"&X c #A80001",
"*X c #780002",
"=X c #A40001",
"-X c #B20002",
";X c #890004",
":X c None",
">X c #A90001",
",X c #9B0002",
"<X c None",
"1X c #860005",
"2X c #B10002",
"3X c None",
"4X c #A90001",
"5X c #750004",
"6X c None",
"7X c #B20001",
"8X c None",
"9X c None",
"0X c None",
"qX c #7C0005",
"wX c #740002",
"eX c #A40001",
"rX c None",
"tX c None",
"yX c #850004",
"uX c #B20002",
"iX c None",
"pX c #B30001",
"aX c #B10002",
"sX c #A40002",
"dX c #AE0001",
"fX c #740003",
"gX c None",
"hX c None",
"jX c #740003",
"kX c #7D0003",
"lX c #970002",
"zX c None",
"xX c #740003",
"cX c #A00002",
"vX c None",
"bX c None",
"nX c #790003",
"mX c #AE0001",
"MX c #760001",
"NX c None",
"BX c None",
"VX c #930001",
"CX c #810004",
"ZX c #930001",
"AX c #8F0002",
"SX c #B20000",
"DX c #B20001",
"FX c None",
"GX c #A00002",
"HX c #AF0000",
"JX c None",
"KX c #700003",
"LX c #930002",
"PX c None",
"IX c #AE0001",
"UX c None",
"YX c None",
"TX c None",
"RX c None",
"EX c #B20001",
"WX c #810006",
"QX c None",
"!X c #A60001",
"~X c #7D0101",
"^X c None",
"/X c #9C0003",
"(X c #7D0004",
")X c None",
"_X c None",
"`X c #900002",
"'X c None",
"]X c #820002",
"[X c None",
"{X c None",
"}X c #790003",
"|X c None",
" o c None",
".o c #B30001",
"Xo c #940003",
"oo c None",
"Oo c #B30001",
"+o c #B20001",
"@o c None",
"#o c #820004",
"$o c None",
"%o c #980001",
"&o c None",
"*o c #8D0001",
"=o c None",
"-o c None",
";o c #B20002",
":o c None",
">o c None",
",o c #8D0001",
"<o c None",
"1o c #980002",
"2o c #A20005",
"3o c #750003",
"4o c None",
"5o c #700105",
"6o c #9D0003",
"7o c #910001",
"8o c #8B0002",
"9o c #8C0001",
"0o c None",
"qo c #750003",
"wo c None",
"eo c None",
"ro c None",
/* pixels */
"                                                                ",
"                                                                ",
"                                                                ",
"                                                                ",
"                                                                ",
"                                                                ",
"                                                                ",
"          !.'X'X'X<                       G G G G G !.          ",
"        -otX_.-X- )Xx.<               W._Xr.E M 1Xj c._         ",
"    YXs.~ I.k <.i SX# vXT         3 <o; AX8o{.V yXJ.kX{ bXK     ",
"  YX) 0.x EX.o0o@ozX] IX|.A     $.2 ~.VX9.q ;Xd P CXn 5.q.OXK   ",
"  b.m ..f.3X-o<   FX[X% T.NX  A a ,XlXZXd.F.r U.]XQ.w qXX.7.9X  ",
"H I K.y.u             < <Xl !.0X6ou.B.LXC 9ogXc . `.~X}XqofX'.k.",
"Q ^.6 dX[X                  8X> g Z lX, 7o: k.      R ,.3oxXt.X ",
"4oG.& %./.                W.hX/ t %oo.7 p.            UX* qo).R.",
"@.;.o pXYX              W.^X=X X3.1oY.QX              H :XwX4 =o",
"4osX8 mXi.            3 -.=.eX XS 6.h                   } ! KX=o",
"D.a.| L TX|X        YX>o4XN eXGX/X&o>.                v.5XjXM.0 ",
"V.!X&.S.oX$Xeoe e eo) J 1 w.H.cX$ >.B <                .h.xXN.y ",
"A {Xm.S.;o2XZ.uX7XOo2XE.&Xw.:.1.ro  l.p C.          v.}.2.L.5ok.",
"   oHXg.+o+o;o;o+oaXS.*.].9 2o(.A   JXXo`X*oiXRXW ooU = *XMX.X  ",
"    PXO.4.A.v 8.v +o^ #.>X%XW.      A ` D ( e.s z WX(XnX+.f     ",
"      rX6Xz.O DXDX[.+ b n.G           A 5 ,o+X@ #oj.XX:oH       ",
"          $oBX' ' ' wo<                   F P.@X[ #XY           ",
"                                                                ",
"                                                                ",
"                                                                ",
"                                                                ",
"                                                                ",
"                                                                ",
"                                                                ",
"                                                                "
};
